{
  "meta": {
    "code": 200,
    "requestId": "6037d4bdf7d7fb4ded8a5c4b"
  },
  "response": {
    "venues": [
      {
        "id": "4c94ecb3533aa093f9dcc345",
        "name": "Pizza Peppe",
        "location": {
          "address": "Газетный пер., 9, стр. 2",
          "lat": 55.75810244800802,
          "lng": 37.60935251323689,
          "labeledLatLngs": [
            {
              "label": "display",
              "lat": 55.75810244800802,
              "lng": 37.60935251323689
            }
          ],
          "cc": "RU",
          "city": "Москва",
          "state": "Москва",
          "country": "Россия",
          "formattedAddress": [
            "Газетный пер., 9, стр. 2",
            "Москва",
            "Россия"
          ]
        },
        "categories": [
          {
            "id": "4bf58dd8d48988d1ca941735",
            "name": "Пиццерия",
            "pluralName": "Пиццерии",
            "shortName": "Пиццерия",
            "icon": {
              "prefix": "https:\/\/ss3.4sqi.net\/img\/categories_v2\/food\/pizza_",
              "suffix": ".png"
            },
            "primary": true
          }
        ],
        "referralId": "v-1614271677",
        "hasPerk": false
      },
      {
        "id": "541183f5498e6ec0ab54e5b8",
        "name": "Brooklyn Pizza Pie",
        "location": {
          "address": "Большая Никитская ул., 23\/14\/9",
          "lat": 55.757257,
          "lng": 37.599035,
          "labeledLatLngs": [
            {
              "label": "display",
              "lat": 55.757257,
              "lng": 37.599035
            }
          ],
          "postalCode": "119019",
          "cc": "RU",
          "neighborhood": "Арбат",
          "city": "Москва",
          "state": "Москва",
          "country": "Россия",
          "formattedAddress": [
            "Большая Никитская ул., 23\/14\/9",
            "119019, Москва",
            "Россия"
          ]
        },
        "categories": [
          {
            "id": "4bf58dd8d48988d1ca941735",
            "name": "Пиццерия",
            "pluralName": "Пиццерии",
            "shortName": "Пиццерия",
            "icon": {
              "prefix": "https:\/\/ss3.4sqi.net\/img\/categories_v2\/food\/pizza_",
              "suffix": ".png"
            },
            "primary": true
          }
        ],
        "referralId": "v-1614271677",
        "hasPerk": false
      },
      {
        "id": "50b4f33ae4b04d4b63af0cde",
        "name": "Pizza Hut",
        "location": {
          "address": "Цветной бул., 11, стр. 2",
          "lat": 55.77002667447972,
          "lng": 37.620929378994354,
          "labeledLatLngs": [
            {
              "label": "display",
              "lat": 55.77002667447972,
              "lng": 37.620929378994354
            }
          ],
          "cc": "RU",
          "city": "Москва",
          "state": "Москва",
          "country": "Россия",
          "formattedAddress": [
            "Цветной бул., 11, стр. 2",
            "Москва",
            "Россия"
          ]
        },
        "categories": [
          {
            "id": "4bf58dd8d48988d1ca941735",
            "name": "Пиццерия",
            "pluralName": "Пиццерии",
            "shortName": "Пиццерия",
            "icon": {
              "prefix": "https:\/\/ss3.4sqi.net\/img\/categories_v2\/food\/pizza_",
              "suffix": ".png"
            },
            "primary": true
          }
        ],
        "referralId": "v-1614271677",
        "hasPerk": false
      },
      {
        "id": "5506b944498e227d1be50cfc",
        "name": "Raz Dva Pizza",
        "location": {
          "lat": 55.747962951660156,
          "lng": 37.58705520629883,
          "labeledLatLngs": [
            {
              "label": "display",
              "lat": 55.747962951660156,
              "lng": 37.58705520629883
            }
          ],
          "cc": "RU",
          "country": "Россия",
          "formattedAddress": [
            "Россия"
          ]
        },
        "categories": [
          {
            "id": "4bf58dd8d48988d1ca941735",
            "name": "Пиццерия",
            "pluralName": "Пиццерии",
            "shortName": "Пиццерия",
            "icon": {
              "prefix": "https:\/\/ss3.4sqi.net\/img\/categories_v2\/food\/pizza_",
              "suffix": ".png"
            },
            "primary": true
          }
        ],
        "referralId": "v-1614271677",
        "hasPerk": false
      },
      {
        "id": "59be341a9cadd90e7e05adbc",
        "name": "Camorra Pizza e Birra",
        "location": {
          "address": "Большой Спасоглинищевский пер., 9\/1, стр. 10",
          "lat": 55.755135,
          "lng": 37.636913,
          "labeledLatLngs": [
            {
              "label": "display",
              "lat": 55.755135,
              "lng": 37.636913
            }
          ],
          "postalCode": "101000",
          "cc": "RU",
          "neighborhood": "Басманный",
          "city": "Москва",
          "state": "Москва",
          "country": "Россия",
          "formattedAddress": [
            "Большой Спасоглинищевский пер., 9\/1, стр. 10",
            "101000, Москва",
            "Россия"
          ]
        },
        "categories": [
          {
            "id": "4bf58dd8d48988d1ca941735",
            "name": "Пиццерия",
            "pluralName": "Пиццерии",
            "shortName": "Пиццерия",
            "icon": {
              "prefix": "https:\/\/ss3.4sqi.net\/img\/categories_v2\/food\/pizza_",
              "suffix": ".png"
            },
            "primary": true
          }
        ],
        "referralId": "v-1614271677",
        "hasPerk": false
      },
      {
        "id": "602e69da6cde4a540787b011",
        "name": "Nyc Pizza",
        "location": {
          "lat": 55.765636,
          "lng": 37.608117,
          "labeledLatLngs": [
            {
              "label": "display",
              "lat": 55.765636,
              "lng": 37.608117
            }
          ],
          "postalCode": "125009",
          "cc": "RU",
          "city": "Moscow",
          "state": "Московская обл.",
          "country": "Россия",
          "formattedAddress": [
            "125009, Moscow",
            "Россия"
          ]
        },
        "categories": [
          {
            "id": "4bf58dd8d48988d1ca941735",
            "name": "Пиццерия",
            "pluralName": "Пиццерии",
            "shortName": "Пиццерия",
            "icon": {
              "prefix": "https:\/\/ss3.4sqi.net\/img\/categories_v2\/food\/pizza_",
              "suffix": ".png"
            },
            "primary": true
          }
        ],
        "referralId": "v-1614271677",
        "hasPerk": false
      },
      {
        "id": "5e46688abb1501000792e145",
        "name": "Zotman Pizza",
        "location": {
          "address": "ул. Солянка, 1\/2",
          "lat": 55.754619,
          "lng": 37.638167,
          "labeledLatLngs": [
            {
              "label": "display",
              "lat": 55.754619,
              "lng": 37.638167
            }
          ],
          "postalCode": "109028",
          "cc": "RU",
          "city": "Москва",
          "state": "Москва",
          "country": "Россия",
          "formattedAddress": [
            "ул. Солянка, 1\/2",
            "109028, Москва",
            "Россия"
          ]
        },
        "categories": [
          {
            "id": "4bf58dd8d48988d1ca941735",
            "name": "Пиццерия",
            "pluralName": "Пиццерии",
            "shortName": "Пиццерия",
            "icon": {
              "prefix": "https:\/\/ss3.4sqi.net\/img\/categories_v2\/food\/pizza_",
              "suffix": ".png"
            },
            "primary": true
          }
        ],
        "referralId": "v-1614271677",
        "hasPerk": false
      },
      {
        "id": "5c7ebffbc5b11c002c1fa404",
        "name": "Ciao Pasta & Pizza",
        "location": {
          "address": "Лесная, 20",
          "lat": 55.780011,
          "lng": 37.592997,
          "labeledLatLngs": [
            {
              "label": "display",
              "lat": 55.780011,
              "lng": 37.592997
            }
          ],
          "postalCode": "125047",
          "cc": "RU",
          "neighborhood": "Тверской",
          "city": "Москва",
          "state": "Москва",
          "country": "Россия",
          "formattedAddress": [
            "Лесная, 20",
            "125047, Москва",
            "Россия"
          ]
        },
        "categories": [
          {
            "id": "4bf58dd8d48988d110941735",
            "name": "Итальянский ресторан",
            "pluralName": "Итальянские рестораны",
            "shortName": "Итальянский ресторан",
            "icon": {
              "prefix": "https:\/\/ss3.4sqi.net\/img\/categories_v2\/food\/italian_",
              "suffix": ".png"
            },
            "primary": true
          }
        ],
        "referralId": "v-1614271677",
        "hasPerk": false
      },
      {
        "id": "5239ebce11d2a205a9518f06",
        "name": "8 Bit Pizza (TO GO)",
        "location": {
          "address": "Правды, 24с3",
          "lat": 55.788122526706125,
          "lng": 37.584004062307294,
          "labeledLatLngs": [
            {
              "label": "display",
              "lat": 55.788122526706125,
              "lng": 37.584004062307294
            }
          ],
          "cc": "RU",
          "neighborhood": "Begovoy",
          "city": "Москва",
          "state": "Москва",
          "country": "Россия",
          "formattedAddress": [
            "Правды, 24с3",
            "Москва",
            "Россия"
          ]
        },
        "categories": [
          {
            "id": "4bf58dd8d48988d1e0931735",
            "name": "Кофейня",
            "pluralName": "Кофейни",
            "shortName": "Кофейня",
            "icon": {
              "prefix": "https:\/\/ss3.4sqi.net\/img\/categories_v2\/food\/coffeeshop_",
              "suffix": ".png"
            },
            "primary": true
          }
        ],
        "referralId": "v-1614271677",
        "hasPerk": false
      },
      {
        "id": "5f53e2e6a878b571b27f41d7",
        "name": "Solo Pizza & Pasta",
        "location": {
          "address": "Большой Черкасский пер., 15-17, стр. 1",
          "lat": 55.756653,
          "lng": 37.628203,
          "labeledLatLngs": [
            {
              "label": "display",
              "lat": 55.756653,
              "lng": 37.628203
            }
          ],
          "postalCode": "103070",
          "cc": "RU",
          "city": "Москва",
          "state": "Москва",
          "country": "Россия",
          "formattedAddress": [
            "Большой Черкасский пер., 15-17, стр. 1",
            "103070, Москва",
            "Россия"
          ]
        },
        "categories": [
          {
            "id": "4bf58dd8d48988d1ca941735",
            "name": "Пиццерия",
            "pluralName": "Пиццерии",
            "shortName": "Пиццерия",
            "icon": {
              "prefix": "https:\/\/ss3.4sqi.net\/img\/categories_v2\/food\/pizza_",
              "suffix": ".png"
            },
            "primary": true
          }
        ],
        "referralId": "v-1614271677",
        "hasPerk": false
      }
    ],
    "geocode": {
      "what": "",
      "where": "moscow",
      "feature": {
        "cc": "RU",
        "name": "Москва",
        "displayName": "Москва, Россия",
        "matchedName": "Moscow, Россия",
        "highlightedName": "<b>Moscow<\/b>, Россия",
        "woeType": 7,
        "slug": "moscow",
        "id": "geonameid:524901",
        "longId": "72057594038452837",
        "geometry": {
          "center": {
            "lat": 55.75222,
            "lng": 37.61556
          },
          "bounds": {
            "ne": {
              "lat": 56.019074988673324,
              "lng": 37.96493399950954
            },
            "sw": {
              "lat": 55.50402900005645,
              "lng": 37.14263708584998
            }
          }
        }
      },
      "parents": []
    }
  }
}